Procesador RISC-V/alu.vcd
$comment Generated by Amaranth $end
$date 2026-03-15 20:20:54.259354 $end
$timescale 1 fs $end
$scope module bench $end
$scope module top $end
$var wire 32 ! result $end
$var wire 4 " alu_operation $end
$var wire 32 # a $end
$var wire 32 $ b $end
$var wire 1 % zero $end
$var wire 1 & lt $end
$var wire 1 ' ltu $end
$upscope $end
$upscope $end
$enddefinitions $end
#0
$dumpvars
b111100000000000011110000 !
b0 "
b11110000111100001111000011110000 #
b1111111100000000111111110000 $
0%
1&
0'
$end
#1000000
b10010001101000000000000000000 #
b101011001111000 $
b1 "
b10010001101000101011001111000 !
0&
#2000000
b10101010101010101010101010101010 #
b1010101010101010101010101010101 $
b10 "
b11111111111111111111111111111111 !
1&
#3000000
b1 #
b100 $
b11 "
1'
b10000 !
#4000000
b10000000000000000000000000000000 #
b100 "
0'
b1000000000000000000000000000 !
#5000000
b101 "
b11111000000000000000000000000000 !
#6000000
b11111111111111111111111111111111 #
b1 $
b110 "
b1 !
#7000000
b111 "
b0 !
1%
#8000000
b101 #
b1000 $
b110 "
1'
b1 !
0%
#9000000
b111 "
#10000000
b1000 "
b1101 !
#11000000
b11111111111111111111111111111111 #
b1 $
0'
b0 !
1%
#12000000
b1000 #
b101 $
b1001 "
b11 !
0&
0%
#13000000
b0 #
b1 $
1'
b11111111111111111111111111111111 !
1&
