Procesador RISC-V/decoder.vcd
$comment Generated by Amaranth $end
$date 2026-03-15 20:28:34.816583 $end
$timescale 1 fs $end
$scope module bench $end
$scope module top $end
$var wire 7 ! opcode $end
$var wire 32 " instruction $end
$var wire 5 # rd $end
$var wire 3 $ funct3 $end
$var wire 5 % rs1 $end
$var wire 5 & rs2 $end
$var wire 7 ' funct7 $end
$var wire 4 ( alu_op $end
$var wire 1 ) reg_we $end
$var wire 1 * alu_src_imm $end
$var wire 1 + mem_re $end
$var wire 1 , mem_we $end
$var wire 1 - branch $end
$var wire 1 . jump $end
$var wire 1 / jalr $end
$var wire 2 0 wb_sel $end
$var wire 3 1 imm_type $end
$upscope $end
$upscope $end
$enddefinitions $end
#0
$dumpvars
b110011 !
b1100010000000010110011 "
b1 #
b0 $
b10 %
b11 &
b0 '
b1000 (
1)
0*
0+
0,
0-
0.
0/
b0 0
b0 1
$end
#1000000
b1000000001100010000000010110011 "
b100000 '
b1001 (
#2000000
b10100010000000010010011 "
b10011 !
b0 '
b101 &
1*
b1000 (
#3000000
b100000010010000010000011 "
b11 !
b10 $
b1000 &
1+
b1 0
#4000000
b10010100010010000000100011 "
b100011 !
b1 '
b101 &
b0 #
0)
b0 0
b1 1
0+
1,
#5000000
b1100010000000001100011 "
b1100011 !
b0 '
b0 $
b11 &
0*
0,
b10 1
1-
#6000000
b11101111 "
b1101111 !
b0 &
b1 #
b0 %
1)
b10 0
b100 1
0-
1.
#7000000
b10000010000000011100111 "
b1100111 !
b100 &
b10 %
1*
1/
b0 1
0.
#8000000
b10010001101000101000010110111 "
b110111 !
b101 $
b1000 %
b11 &
b1001 '
0*
0/
b11 1
b11 0
#9000000
b10010001101000101000010010111 "
b10111 !
1*
b0 0
