Procesador RISC-V/regfile.vcd
$comment Generated by Amaranth $end
$date 2026-03-15 20:28:34.623902 $end
$timescale 1 fs $end
$scope module bench $end
$scope module top $end
$var wire 1 ! clk $end
$var wire 1 " rst $end
$var wire 32 # rs1_data $end
$var wire 5 $ rs1_address $end
$var wire 1 % rd_we $end
$var wire 5 & rd_address $end
$var wire 32 ' x0 $end
$var wire 32 ( x1 $end
$var wire 32 ) x2 $end
$var wire 32 * x3 $end
$var wire 32 + x4 $end
$var wire 32 , x5 $end
$var wire 32 - x6 $end
$var wire 32 . x7 $end
$var wire 32 / x8 $end
$var wire 32 0 x9 $end
$var wire 32 1 x10 $end
$var wire 32 2 x11 $end
$var wire 32 3 x12 $end
$var wire 32 4 x13 $end
$var wire 32 5 x14 $end
$var wire 32 6 x15 $end
$var wire 32 7 x16 $end
$var wire 32 8 x17 $end
$var wire 32 9 x18 $end
$var wire 32 : x19 $end
$var wire 32 ; x20 $end
$var wire 32 < x21 $end
$var wire 32 = x22 $end
$var wire 32 > x23 $end
$var wire 32 ? x24 $end
$var wire 32 @ x25 $end
$var wire 32 A x26 $end
$var wire 32 B x27 $end
$var wire 32 C x28 $end
$var wire 32 D x29 $end
$var wire 32 E x30 $end
$var wire 32 F x31 $end
$var wire 32 G rd_data $end
$var wire 32 H rs2_data $end
$var wire 5 I rs2_address $end
$upscope $end
$upscope $end
$enddefinitions $end
#0
$dumpvars
0!
0"
b0 #
b0 $
0%
b0 &
b0 '
b0 (
b0 )
b0 *
b0 +
b0 ,
b0 -
b0 .
b0 /
b0 0
b0 1
b0 2
b0 3
b0 4
b0 5
b0 6
b0 7
b0 8
b0 9
b0 :
b0 ;
b0 <
b0 =
b0 >
b0 ?
b0 @
b0 A
b0 B
b0 C
b0 D
b0 E
b0 F
b0 G
b0 H
b1 I
$end
#1000000
1%
b10010001101000101011001111000 G
b1 &
b10010001101000101011001111000 H
#500000000
1!
0%
b1 $
b10010001101000101011001111000 (
b10010001101000101011001111000 #
#501000000
1%
b11111111111111111111111111111111 G
b0 &
#1000000000
0!
#1500000000
1!
0%
b0 $
b0 #
#1501000000
1%
b11011110101011011011111011101111 G
b1 &
b11011110101011011011111011101111 H
#2000000000
0!
#2500000000
1!
0%
b1 $
b11011110101011011011111011101111 (
b11011110101011011011111011101111 #
#2501000000
b11001010111111101011101010111110 G
#3000000000
0!
#3500000000
1!
#3501000000
1%
b1011101011011111000000001101 G
b11111 &
#4000000000
0!
#4500000000
1!
0%
b11111 $
b1011101011011111000000001101 F
b1011101011011111000000001101 #
#4501000000
b10001001000100011001101000100 G
b101 $
b101 I
1%
b101 &
b10001001000100011001101000100 #
b10001001000100011001101000100 H
